[{"url": "http://shouji.baidu.com/game/list?cid=401&page_num=2"},
{"url": "http://shouji.baidu.com/game/list?boardid=board_100_0105&cid=401&page_num=2"},
{"url": "http://shouji.baidu.com/game/list?boardid=board_100_0101&cid=401&page_num=2"},
{"url": "http://shouji.baidu.com/game/list?boardid=board_100_0103&cid=401&page_num=2"},
{"url": "http://shouji.baidu.com/game/list?boardid=board_100_0104&cid=401&page_num=2"},
{"url": "http://shouji.baidu.com/game/list?boardid=board_100_0106&cid=401&page_num=2"},
{"url": "http://shouji.baidu.com/game/list?boardid=board_100_0102&cid=401&page_num=2"}][[